0.260869565,0.834394904,0.358695652,0.802547771,0.456521739,0.78343949,0.52173913,0.796178344,0.586956522,0.78343949,0.673913043,0.802547771,0.755434783,0.821656051,0.679347826,0.936305732,0.597826087,0.987261146,0.527173913,1,0.456521739,0.993630573,0.358695652,0.949044586,0.298913043,0.840764331,0.456521739,0.834394904,0.52173913,0.840764331,0.586956522,0.828025478,0.717391304,0.834394904,0.592391304,0.904458599,0.527173913,0.917197452,0.461956522,0.910828025,0,0.114649682,0.086956522,0.031847134,0.201086957,0.006369427,0.320652174,0.031847134,0.429347826,0.082802548,0.614130435,0.070063694,0.722826087,0.01910828,0.831521739,0,0.940217391,0.025477707,1,0.127388535,0.119565217,0.267515924,0.195652174,0.248407643,0.266304348,0.248407643,0.342391304,0.280254777,0.266304348,0.292993631,0.190217391,0.292993631,0.679347826,0.280254777,0.760869565,0.242038217,0.831521739,0.248407643,0.902173913,0.267515924,0.831521739,0.292993631,0.760869565,0.292993631,suka
0.257142857,0.886524823,0.337142857,0.815602837,0.422857143,0.794326241,0.491428571,0.815602837,0.554285714,0.794326241,0.634285714,0.829787234,0.702857143,0.90070922,0.634285714,0.957446809,0.56,0.992907801,0.491428571,1,0.417142857,0.985815603,0.331428571,0.95035461,0.297142857,0.886524823,0.422857143,0.865248227,0.491428571,0.879432624,0.554285714,0.872340426,0.662857143,0.893617021,0.554285714,0.886524823,0.491428571,0.893617021,0.422857143,0.879432624,0,0.092198582,0.085714286,0.007092199,0.205714286,0.007092199,0.32,0.04964539,0.422857143,0.09929078,0.594285714,0.09929078,0.697142857,0.035460993,0.811428571,0,0.925714286,0.014184397,1,0.106382979,0.108571429,0.241134752,0.182857143,0.212765957,0.257142857,0.205673759,0.331428571,0.24822695,0.251428571,0.262411348,0.177142857,0.262411348,0.674285714,0.24822695,0.754285714,0.212765957,0.828571429,0.212765957,0.897142857,0.24822695,0.828571429,0.269503546,0.754285714,0.269503546,tidak suka
0.303867403,0.889570552,0.392265193,0.82208589,0.475138122,0.773006135,0.524861878,0.791411043,0.569060773,0.773006135,0.640883978,0.81595092,0.701657459,0.883435583,0.64640884,0.963190184,0.574585635,0.993865031,0.524861878,1,0.46961326,0.993865031,0.386740331,0.969325153,0.348066298,0.883435583,0.475138122,0.858895706,0.524861878,0.858895706,0.569060773,0.858895706,0.662983425,0.877300613,0.569060773,0.883435583,0.524861878,0.889570552,0.475138122,0.883435583,0,0.073619632,0.08839779,0.006134969,0.20441989,0,0.320441989,0.024539877,0.425414365,0.085889571,0.61878453,0.098159509,0.718232044,0.049079755,0.82320442,0.018404908,0.928176796,0.024539877,1,0.104294479,0.099447514,0.263803681,0.17679558,0.239263804,0.254143646,0.239263804,0.331491713,0.27607362,0.254143646,0.300613497,0.171270718,0.294478528,0.674033149,0.27607362,0.751381215,0.239263804,0.828729282,0.245398773,0.900552486,0.26993865,0.834254144,0.300613497,0.756906077,0.300613497,suka
0.279069767,0.864583333,0.353488372,0.828125,0.43255814,0.8125,0.488372093,0.833333333,0.548837209,0.822916667,0.623255814,0.859375,0.702325581,0.916666667,0.623255814,0.973958333,0.548837209,1,0.48372093,0.994791667,0.418604651,0.979166667,0.348837209,0.9375,0.31627907,0.864583333,0.43255814,0.875,0.488372093,0.885416667,0.548837209,0.885416667,0.665116279,0.911458333,0.544186047,0.90625,0.48372093,0.901041667,0.423255814,0.885416667,0,0.119791667,0.079069767,0.03125,0.190697674,0.015625,0.306976744,0.041666667,0.418604651,0.098958333,0.590697674,0.083333333,0.702325581,0.026041667,0.818604651,0,0.930232558,0.03125,1,0.119791667,0.125581395,0.234375,0.195348837,0.208333333,0.274418605,0.203125,0.344186047,0.255208333,0.274418605,0.260416667,0.195348837,0.260416667,0.669767442,0.25,0.744186047,0.197916667,0.823255814,0.192708333,0.888372093,0.229166667,0.827906977,0.255208333,0.744186047,0.260416667,tidak suka
0.20610687,0.801724138,0.328244275,0.75,0.442748092,0.724137931,0.519083969,0.74137931,0.58778626,0.724137931,0.702290076,0.75862069,0.809160305,0.818965517,0.702290076,0.939655172,0.595419847,0.982758621,0.519083969,1,0.435114504,0.982758621,0.320610687,0.931034483,0.244274809,0.810344828,0.442748092,0.784482759,0.519083969,0.793103448,0.595419847,0.784482759,0.770992366,0.827586207,0.595419847,0.887931034,0.519083969,0.896551724,0.435114504,0.887931034,0,0.086206897,0.091603053,0.017241379,0.213740458,0.00862069,0.335877863,0.034482759,0.442748092,0.086206897,0.58778626,0.094827586,0.694656489,0.034482759,0.801526718,0,0.916030534,0.00862069,1,0.077586207,0.122137405,0.25862069,0.190839695,0.224137931,0.267175573,0.224137931,0.335877863,0.275862069,0.267175573,0.275862069,0.190839695,0.275862069,0.694656489,0.267241379,0.763358779,0.215517241,0.839694656,0.215517241,0.908396947,0.25,0.839694656,0.267241379,0.770992366,0.267241379,suka
0.2265625,0.880733945,0.34375,0.844036697,0.4453125,0.816513761,0.515625,0.844036697,0.5859375,0.816513761,0.703125,0.844036697,0.8203125,0.889908257,0.703125,0.972477064,0.59375,0.990825688,0.5234375,1,0.4453125,0.990825688,0.34375,0.95412844,0.265625,0.889908257,0.4453125,0.899082569,0.5234375,0.908256881,0.59375,0.908256881,0.78125,0.899082569,0.59375,0.908256881,0.5234375,0.908256881,0.4453125,0.899082569,0,0.100917431,0.0859375,0.018348624,0.203125,0,0.3203125,0.018348624,0.421875,0.082568807,0.609375,0.082568807,0.703125,0.027522936,0.8125,0,0.921875,0,1,0.082568807,0.1015625,0.275229358,0.1796875,0.23853211,0.25,0.247706422,0.3203125,0.302752294,0.25,0.302752294,0.171875,0.302752294,0.703125,0.293577982,0.7734375,0.23853211,0.84375,0.229357798,0.90625,0.266055046,0.84375,0.293577982,0.7734375,0.293577982,suka
0.27480916,0.918918919,0.366412214,0.81981982,0.458015267,0.774774775,0.526717557,0.792792793,0.58778626,0.774774775,0.671755725,0.81981982,0.763358779,0.918918919,0.671755725,0.972972973,0.58778626,0.990990991,0.519083969,1,0.458015267,0.990990991,0.366412214,0.972972973,0.320610687,0.90990991,0.458015267,0.864864865,0.526717557,0.873873874,0.58778626,0.864864865,0.72519084,0.90990991,0.58778626,0.882882883,0.519083969,0.891891892,0.450381679,0.882882883,0,0.135135135,0.091603053,0.045045045,0.20610687,0.009009009,0.328244275,0.027027027,0.435114504,0.081081081,0.595419847,0.09009009,0.694656489,0.027027027,0.809160305,0,0.923664122,0.027027027,1,0.108108108,0.106870229,0.288288288,0.175572519,0.252252252,0.251908397,0.243243243,0.328244275,0.297297297,0.251908397,0.306306306,0.175572519,0.306306306,0.702290076,0.288288288,0.770992366,0.234234234,0.847328244,0.234234234,0.916030534,0.27027027,0.854961832,0.297297297,0.778625954,0.297297297,tidak suka
0.292307692,0.939130435,0.376923077,0.834782609,0.469230769,0.773913043,0.523076923,0.791304348,0.584615385,0.773913043,0.676923077,0.826086957,0.761538462,0.930434783,0.669230769,0.973913043,0.584615385,0.991304348,0.523076923,1,0.461538462,0.991304348,0.376923077,0.973913043,0.330769231,0.930434783,0.469230769,0.886956522,0.530769231,0.886956522,0.584615385,0.886956522,0.715384615,0.930434783,0.584615385,0.87826087,0.523076923,0.87826087,0.461538462,0.87826087,0,0.113043478,0.092307692,0.034782609,0.207692308,0.017391304,0.323076923,0.026086957,0.430769231,0.07826087,0.607692308,0.069565217,0.7,0.017391304,0.815384615,0,0.923076923,0.008695652,1,0.086956522,0.1,0.286956522,0.169230769,0.243478261,0.246153846,0.243478261,0.323076923,0.286956522,0.246153846,0.304347826,0.169230769,0.304347826,0.707692308,0.27826087,0.776923077,0.234782609,0.853846154,0.234782609,0.923076923,0.269565217,0.861538462,0.295652174,0.784615385,0.286956522,tidak suka
0.253623188,0.902654867,0.347826087,0.814159292,0.449275362,0.778761062,0.52173913,0.805309735,0.586956522,0.778761062,0.666666667,0.814159292,0.739130435,0.911504425,0.666666667,0.955752212,0.586956522,0.991150442,0.514492754,1,0.434782609,0.991150442,0.34057971,0.955752212,0.289855072,0.89380531,0.442028986,0.876106195,0.52173913,0.884955752,0.586956522,0.876106195,0.702898551,0.902654867,0.586956522,0.884955752,0.514492754,0.89380531,0.442028986,0.884955752,0,0.10619469,0.086956522,0.017699115,0.210144928,0,0.333333333,0.017699115,0.456521739,0.061946903,0.594202899,0.07079646,0.702898551,0.026548673,0.811594203,0,0.927536232,0.026548673,1,0.115044248,0.094202899,0.256637168,0.166666667,0.230088496,0.246376812,0.230088496,0.326086957,0.274336283,0.246376812,0.274336283,0.166666667,0.274336283,0.695652174,0.274336283,0.775362319,0.238938053,0.847826087,0.238938053,0.913043478,0.265486726,0.847826087,0.283185841,0.768115942,0.283185841,tidak suka
0.299270073,0.869230769,0.386861314,0.769230769,0.481751825,0.723076923,0.547445255,0.738461538,0.620437956,0.723076923,0.700729927,0.769230769,0.759124088,0.861538462,0.700729927,0.946153846,0.620437956,0.992307692,0.540145985,1,0.467153285,1,0.372262774,0.961538462,0.335766423,0.861538462,0.474452555,0.807692308,0.547445255,0.815384615,0.620437956,0.807692308,0.722627737,0.861538462,0.620437956,0.869230769,0.540145985,0.876923077,0.474452555,0.869230769,0,0.107692308,0.094890511,0.030769231,0.218978102,0.015384615,0.343065693,0.023076923,0.459854015,0.069230769,0.591240876,0.069230769,0.693430657,0.023076923,0.802919708,0,0.919708029,0.007692308,1,0.069230769,0.102189781,0.246153846,0.182481752,0.207692308,0.262773723,0.2,0.335766423,0.253846154,0.262773723,0.269230769,0.182481752,0.269230769,0.708029197,0.246153846,0.788321168,0.192307692,0.861313869,0.192307692,0.927007299,0.230769231,0.868613139,0.253846154,0.788321168,0.253846154,tidak suka
0.352941176,0.950413223,0.448529412,0.859504132,0.536764706,0.79338843,0.610294118,0.809917355,0.676470588,0.776859504,0.764705882,0.809917355,0.830882353,0.884297521,0.779411765,0.933884298,0.705882353,0.975206612,0.632352941,0.991735537,0.558823529,1,0.463235294,0.991735537,0.389705882,0.933884298,0.536764706,0.884297521,0.610294118,0.884297521,0.683823529,0.867768595,0.801470588,0.876033058,0.698529412,0.859504132,0.625,0.884297521,0.551470588,0.884297521,0,0.132231405,0.080882353,0.041322314,0.198529412,0,0.330882353,0.008264463,0.448529412,0.05785124,0.617647059,0.066115702,0.713235294,0.016528926,0.823529412,0,0.926470588,0.024793388,1,0.107438017,0.095588235,0.297520661,0.176470588,0.26446281,0.257352941,0.26446281,0.338235294,0.305785124,0.257352941,0.330578512,0.169117647,0.330578512,0.720588235,0.297520661,0.794117647,0.256198347,0.867647059,0.256198347,0.941176471,0.289256198,0.875,0.314049587,0.794117647,0.314049587,tidak suka
0.289855072,0.917355372,0.405797101,0.851239669,0.507246377,0.809917355,0.579710145,0.818181818,0.652173913,0.801652893,0.739130435,0.826446281,0.81884058,0.892561983,0.739130435,0.94214876,0.65942029,0.983471074,0.579710145,1,0.507246377,1,0.405797101,0.975206612,0.326086957,0.909090909,0.507246377,0.884297521,0.579710145,0.884297521,0.652173913,0.876033058,0.782608696,0.884297521,0.652173913,0.884297521,0.579710145,0.900826446,0.507246377,0.900826446,0,0.132231405,0.086956522,0.041322314,0.202898551,0,0.326086957,0.008264463,0.434782609,0.049586777,0.644927536,0.049586777,0.739130435,0.008264463,0.84057971,0,0.934782609,0.033057851,1,0.115702479,0.101449275,0.297520661,0.188405797,0.272727273,0.260869565,0.272727273,0.347826087,0.305785124,0.260869565,0.32231405,0.18115942,0.32231405,0.710144928,0.305785124,0.789855072,0.26446281,0.855072464,0.26446281,0.927536232,0.289256198,0.862318841,0.314049587,0.789855072,0.314049587,suka
0.316901408,0.861111111,0.401408451,0.8125,0.492957746,0.770833333,0.542253521,0.784722222,0.591549296,0.763888889,0.669014085,0.805555556,0.732394366,0.847222222,0.669014085,0.944444444,0.591549296,0.986111111,0.528169014,1,0.478873239,1,0.394366197,0.958333333,0.352112676,0.868055556,0.485915493,0.854166667,0.535211268,0.861111111,0.591549296,0.847222222,0.697183099,0.854166667,0.591549296,0.868055556,0.535211268,0.875,0.485915493,0.875,0,0.076388889,0.091549296,0.006944444,0.204225352,0,0.330985915,0.006944444,0.429577465,0.055555556,0.626760563,0.0625,0.725352113,0.013888889,0.830985915,0.006944444,0.936619718,0.027777778,1,0.097222222,0.091549296,0.25,0.176056338,0.229166667,0.26056338,0.236111111,0.330985915,0.270833333,0.253521127,0.284722222,0.169014085,0.284722222,0.690140845,0.277777778,0.767605634,0.243055556,0.845070423,0.243055556,0.908450704,0.263888889,0.852112676,0.291666667,0.767605634,0.291666667,suka
0.189393939,0.777777778,0.287878788,0.740740741,0.409090909,0.718518519,0.484848485,0.733333333,0.568181818,0.718518519,0.681818182,0.740740741,0.78030303,0.777777778,0.681818182,0.911111111,0.575757576,0.985185185,0.484848485,1,0.386363636,0.985185185,0.28030303,0.918518519,0.21969697,0.785185185,0.401515152,0.77037037,0.484848485,0.785185185,0.568181818,0.77037037,0.757575758,0.792592593,0.568181818,0.896296296,0.484848485,0.911111111,0.393939394,0.896296296,0,0.118518519,0.068181818,0.037037037,0.166666667,0.014814815,0.28030303,0.02962963,0.378787879,0.066666667,0.575757576,0.059259259,0.689393939,0.014814815,0.810606061,0,0.924242424,0.02962963,1,0.111111111,0.098484848,0.244444444,0.174242424,0.214814815,0.234848485,0.214814815,0.318181818,0.251851852,0.242424242,0.251851852,0.166666667,0.251851852,0.666666667,0.251851852,0.742424242,0.214814815,0.810606061,0.214814815,0.878787879,0.237037037,0.810606061,0.251851852,0.742424242,0.251851852,suka
0.207692308,0.838983051,0.315384615,0.822033898,0.423076923,0.796610169,0.5,0.822033898,0.576923077,0.805084746,0.676923077,0.830508475,0.784615385,0.855932203,0.676923077,0.940677966,0.576923077,0.991525424,0.492307692,1,0.415384615,0.983050847,0.315384615,0.93220339,0.246153846,0.855932203,0.423076923,0.855932203,0.5,0.86440678,0.576923077,0.855932203,0.746153846,0.86440678,0.576923077,0.898305085,0.5,0.906779661,0.415384615,0.898305085,0,0.110169492,0.076923077,0.033898305,0.176923077,0.008474576,0.284615385,0.025423729,0.384615385,0.06779661,0.576923077,0.059322034,0.684615385,0.016949153,0.8,0,0.923076923,0.025423729,1,0.101694915,0.107692308,0.245762712,0.184615385,0.220338983,0.246153846,0.220338983,0.323076923,0.254237288,0.246153846,0.245762712,0.176923077,0.245762712,0.661538462,0.254237288,0.738461538,0.220338983,0.807692308,0.211864407,0.876923077,0.237288136,0.807692308,0.245762712,0.738461538,0.245762712,suka
0.293233083,0.904761905,0.37593985,0.841269841,0.458646617,0.801587302,0.511278195,0.817460317,0.563909774,0.793650794,0.646616541,0.841269841,0.729323308,0.896825397,0.654135338,0.952380952,0.578947368,0.984126984,0.518796992,1,0.45112782,0.992063492,0.37593985,0.968253968,0.323308271,0.904761905,0.45112782,0.873015873,0.511278195,0.880952381,0.571428571,0.873015873,0.691729323,0.896825397,0.571428571,0.880952381,0.511278195,0.888888889,0.458646617,0.880952381,0,0.103174603,0.082706767,0.023809524,0.187969925,0.015873016,0.30075188,0.031746032,0.398496241,0.071428571,0.578947368,0.063492063,0.684210526,0.015873016,0.804511278,0,0.917293233,0.015873016,1,0.095238095,0.097744361,0.253968254,0.172932331,0.222222222,0.255639098,0.222222222,0.330827068,0.26984127,0.255639098,0.285714286,0.172932331,0.285714286,0.669172932,0.26984127,0.744360902,0.214285714,0.819548872,0.214285714,0.887218045,0.246031746,0.827067669,0.277777778,0.751879699,0.277777778,tidak suka
0.253731343,0.9296875,0.335820896,0.8359375,0.425373134,0.78125,0.492537313,0.8046875,0.567164179,0.78125,0.656716418,0.84375,0.73880597,0.9375,0.656716418,0.984375,0.567164179,1,0.485074627,1,0.417910448,0.9921875,0.328358209,0.9765625,0.291044776,0.9140625,0.425373134,0.875,0.492537313,0.8828125,0.567164179,0.875,0.701492537,0.921875,0.567164179,0.875,0.492537313,0.8828125,0.417910448,0.875,0,0.1171875,0.067164179,0.03125,0.171641791,0.015625,0.28358209,0.03125,0.388059701,0.0703125,0.567164179,0.0703125,0.671641791,0.015625,0.798507463,0,0.917910448,0.0234375,1,0.109375,0.074626866,0.2890625,0.149253731,0.25,0.231343284,0.2578125,0.313432836,0.3046875,0.231343284,0.3125,0.141791045,0.3125,0.664179104,0.3046875,0.73880597,0.25,0.820895522,0.25,0.895522388,0.2890625,0.828358209,0.3125,0.746268657,0.3125,tidak suka
0.281105991,0.863874346,0.350230415,0.827225131,0.423963134,0.811518325,0.483870968,0.832460733,0.543778802,0.821989529,0.617511521,0.863874346,0.69124424,0.921465969,0.617511521,0.979057592,0.543778802,1,0.474654378,0.994764398,0.410138249,0.984293194,0.341013825,0.937172775,0.313364055,0.869109948,0.423963134,0.869109948,0.483870968,0.884816754,0.543778802,0.884816754,0.649769585,0.910994764,0.539170507,0.905759162,0.474654378,0.905759162,0.414746544,0.884816754,0,0.115183246,0.078341014,0.031413613,0.193548387,0.015706806,0.30875576,0.047120419,0.419354839,0.09947644,0.580645161,0.083769634,0.69124424,0.02617801,0.811059908,0,0.926267281,0.031413613,1,0.12565445,0.119815668,0.235602094,0.188940092,0.204188482,0.267281106,0.204188482,0.341013825,0.251308901,0.267281106,0.267015707,0.188940092,0.261780105,0.66359447,0.251308901,0.737327189,0.193717277,0.815668203,0.193717277,0.880184332,0.230366492,0.820276498,0.261780105,0.737327189,0.261780105,tidak suka
0.330232558,0.901041667,0.413953488,0.869791667,0.497674419,0.84375,0.553488372,0.864583333,0.609302326,0.854166667,0.68372093,0.885416667,0.753488372,0.921875,0.674418605,0.973958333,0.6,0.994791667,0.544186047,1,0.48372093,0.989583333,0.404651163,0.963541667,0.36744186,0.90625,0.497674419,0.90625,0.553488372,0.916666667,0.604651163,0.911458333,0.711627907,0.927083333,0.6,0.911458333,0.544186047,0.911458333,0.488372093,0.90625,0,0.151041667,0.093023256,0.072916667,0.223255814,0.041666667,0.348837209,0.067708333,0.474418605,0.109375,0.618604651,0.09375,0.71627907,0.03125,0.823255814,0,0.930232558,0.015625,1,0.088541667,0.134883721,0.255208333,0.209302326,0.21875,0.288372093,0.21875,0.362790698,0.270833333,0.288372093,0.291666667,0.204651163,0.291666667,0.693023256,0.25,0.758139535,0.182291667,0.837209302,0.177083333,0.902325581,0.213541667,0.846511628,0.25,0.76744186,0.260416667,tidak suka
0.362790698,0.91,0.441860465,0.845,0.530232558,0.81,0.590697674,0.83,0.655813953,0.81,0.725581395,0.84,0.790697674,0.895,0.734883721,0.96,0.669767442,0.99,0.604651163,1,0.534883721,0.995,0.446511628,0.97,0.4,0.905,0.530232558,0.89,0.595348837,0.895,0.660465116,0.885,0.753488372,0.895,0.665116279,0.89,0.6,0.9,0.534883721,0.895,0,0.17,0.093023256,0.085,0.223255814,0.05,0.353488372,0.06,0.474418605,0.105,0.623255814,0.085,0.720930233,0.025,0.827906977,0,0.934883721,0.025,1,0.1,0.134883721,0.27,0.209302326,0.23,0.293023256,0.225,0.36744186,0.275,0.293023256,0.295,0.209302326,0.305,0.702325581,0.25,0.76744186,0.185,0.846511628,0.175,0.911627907,0.215,0.860465116,0.25,0.781395349,0.26,tidak suka
0.260273973,0.889952153,0.351598174,0.837320574,0.447488584,0.818181818,0.511415525,0.842105263,0.575342466,0.832535885,0.648401826,0.861244019,0.707762557,0.913875598,0.643835616,0.976076555,0.570776256,1,0.497716895,1,0.429223744,0.990430622,0.337899543,0.95215311,0.296803653,0.889952153,0.442922374,0.885167464,0.506849315,0.899521531,0.570776256,0.894736842,0.671232877,0.913875598,0.570776256,0.918660287,0.502283105,0.923444976,0.438356164,0.913875598,0,0.119617225,0.086757991,0.038277512,0.210045662,0,0.342465753,0,0.461187215,0.057416268,0.616438356,0.052631579,0.726027397,0.004784689,0.844748858,0.009569378,0.949771689,0.057416268,1,0.148325359,0.118721461,0.224880383,0.191780822,0.186602871,0.269406393,0.186602871,0.342465753,0.23923445,0.269406393,0.244019139,0.191780822,0.244019139,0.684931507,0.248803828,0.753424658,0.196172249,0.831050228,0.196172249,0.894977169,0.244019139,0.835616438,0.263157895,0.757990868,0.263157895,tidak suka
0.278538813,0.831111111,0.369863014,0.804444444,0.456621005,0.782222222,0.515981735,0.795555556,0.575342466,0.777777778,0.662100457,0.8,0.753424658,0.831111111,0.671232877,0.937777778,0.593607306,0.986666667,0.529680365,1,0.465753425,0.991111111,0.369863014,0.942222222,0.310502283,0.84,0.461187215,0.831111111,0.520547945,0.835555556,0.579908676,0.826666667,0.721461187,0.835555556,0.584474886,0.911111111,0.525114155,0.92,0.465753425,0.911111111,0,0.137777778,0.068493151,0.048888889,0.173515982,0.004444444,0.287671233,0.008888889,0.388127854,0.062222222,0.625570776,0.057777778,0.726027397,0.004444444,0.835616438,0,0.940639269,0.044444444,1,0.137777778,0.127853881,0.275555556,0.191780822,0.235555556,0.273972603,0.24,0.337899543,0.302222222,0.264840183,0.311111111,0.182648402,0.306666667,0.675799087,0.293333333,0.739726027,0.226666667,0.821917808,0.226666667,0.885844749,0.266666667,0.826484018,0.297777778,0.744292237,0.306666667,suka
0.248847926,0.818584071,0.350230415,0.796460177,0.442396313,0.783185841,0.502304147,0.796460177,0.562211982,0.783185841,0.649769585,0.800884956,0.737327189,0.82300885,0.658986175,0.938053097,0.571428571,0.991150442,0.506912442,1,0.442396313,0.991150442,0.34562212,0.938053097,0.281105991,0.82300885,0.442396313,0.82300885,0.502304147,0.827433628,0.562211982,0.82300885,0.705069124,0.831858407,0.571428571,0.911504425,0.506912442,0.920353982,0.442396313,0.907079646,0,0.128318584,0.073732719,0.044247788,0.184331797,0,0.299539171,0.004424779,0.405529954,0.057522124,0.631336406,0.057522124,0.728110599,0.008849558,0.838709677,0.004424779,0.940092166,0.053097345,1,0.137168142,0.119815668,0.256637168,0.193548387,0.212389381,0.276497696,0.221238938,0.341013825,0.287610619,0.267281106,0.296460177,0.184331797,0.287610619,0.67281106,0.292035398,0.746543779,0.225663717,0.829493088,0.221238938,0.894009217,0.265486726,0.834101382,0.296460177,0.751152074,0.300884956,suka
0.226244344,0.836206897,0.312217195,0.814655172,0.398190045,0.801724138,0.461538462,0.818965517,0.524886878,0.806034483,0.615384615,0.827586207,0.705882353,0.862068966,0.619909502,0.952586207,0.524886878,0.995689655,0.461538462,1,0.389140271,0.987068966,0.303167421,0.935344828,0.262443439,0.840517241,0.398190045,0.849137931,0.457013575,0.857758621,0.524886878,0.853448276,0.669683258,0.862068966,0.529411765,0.913793103,0.461538462,0.918103448,0.398190045,0.905172414,0,0.112068966,0.07239819,0.034482759,0.180995475,0,0.294117647,0.017241379,0.393665158,0.073275862,0.633484163,0.086206897,0.728506787,0.051724138,0.837104072,0.051724138,0.932126697,0.081896552,1,0.155172414,0.117647059,0.254310345,0.185520362,0.215517241,0.266968326,0.224137931,0.330316742,0.293103448,0.253393665,0.301724138,0.171945701,0.288793103,0.660633484,0.306034483,0.733031674,0.245689655,0.819004525,0.245689655,0.882352941,0.288793103,0.819004525,0.323275862,0.737556561,0.323275862,suka
0.21559633,0.847533632,0.302752294,0.843049327,0.376146789,0.829596413,0.435779817,0.852017937,0.490825688,0.843049327,0.568807339,0.865470852,0.660550459,0.887892377,0.564220183,0.968609865,0.486238532,1,0.426605505,1,0.362385321,0.986547085,0.288990826,0.937219731,0.252293578,0.860986547,0.376146789,0.878923767,0.431192661,0.892376682,0.490825688,0.887892377,0.619266055,0.892376682,0.486238532,0.905829596,0.431192661,0.910313901,0.371559633,0.896860987,0,0.112107623,0.073394495,0.031390135,0.178899083,0,0.288990826,0.013452915,0.385321101,0.071748879,0.619266055,0.080717489,0.720183486,0.040358744,0.834862385,0.044843049,0.940366972,0.098654709,1,0.188340807,0.110091743,0.251121076,0.178899083,0.215246637,0.256880734,0.224215247,0.321100917,0.291479821,0.247706422,0.295964126,0.165137615,0.286995516,0.651376147,0.313901345,0.724770642,0.260089686,0.80733945,0.264573991,0.871559633,0.30941704,0.80733945,0.33632287,0.724770642,0.33632287,suka
0.268518519,0.937142857,0.365740741,0.908571429,0.449074074,0.88,0.513888889,0.902857143,0.583333333,0.88,0.657407407,0.902857143,0.736111111,0.931428571,0.657407407,0.977142857,0.587962963,0.994285714,0.518518519,1,0.453703704,1,0.365740741,0.982857143,0.305555556,0.937142857,0.453703704,0.937142857,0.518518519,0.942857143,0.583333333,0.931428571,0.699074074,0.937142857,0.583333333,0.914285714,0.518518519,0.925714286,0.453703704,0.92,0,0.131428571,0.078703704,0.04,0.189814815,0.017142857,0.300925926,0.034285714,0.412037037,0.074285714,0.606481481,0.062857143,0.717592593,0.022857143,0.828703704,0,0.935185185,0.028571429,1,0.12,0.134259259,0.285714286,0.203703704,0.257142857,0.282407407,0.262857143,0.347222222,0.314285714,0.277777778,0.331428571,0.199074074,0.325714286,0.671296296,0.308571429,0.736111111,0.251428571,0.814814815,0.245714286,0.87962963,0.274285714,0.824074074,0.314285714,0.74537037,0.325714286,tidak suka
0.266666667,0.908571429,0.366666667,0.874285714,0.452380952,0.851428571,0.523809524,0.868571429,0.595238095,0.845714286,0.676190476,0.868571429,0.757142857,0.897142857,0.676190476,0.954285714,0.6,0.988571429,0.528571429,1,0.457142857,1,0.361904762,0.971428571,0.304761905,0.914285714,0.457142857,0.92,0.523809524,0.931428571,0.595238095,0.914285714,0.714285714,0.902857143,0.595238095,0.897142857,0.523809524,0.908571429,0.457142857,0.902857143,0,0.125714286,0.080952381,0.04,0.195238095,0.022857143,0.304761905,0.04,0.40952381,0.085714286,0.60952381,0.068571429,0.719047619,0.028571429,0.823809524,0,0.933333333,0.017142857,1,0.097142857,0.133333333,0.28,0.204761905,0.257142857,0.285714286,0.262857143,0.352380952,0.308571429,0.280952381,0.325714286,0.2,0.32,0.676190476,0.297142857,0.742857143,0.24,0.819047619,0.234285714,0.89047619,0.257142857,0.828571429,0.297142857,0.752380952,0.308571429,tidak suka
0.299516908,0.92,0.371980676,0.84,0.449275362,0.811428571,0.52173913,0.822857143,0.599033816,0.8,0.671497585,0.822857143,0.729468599,0.902857143,0.676328502,0.954285714,0.608695652,0.988571429,0.531400966,1,0.458937198,1,0.376811594,0.977142857,0.338164251,0.914285714,0.45410628,0.885714286,0.526570048,0.885714286,0.599033816,0.874285714,0.690821256,0.897142857,0.603864734,0.885714286,0.526570048,0.897142857,0.45410628,0.891428571,0,0.137142857,0.072463768,0.051428571,0.188405797,0.022857143,0.304347826,0.034285714,0.415458937,0.08,0.579710145,0.051428571,0.695652174,0.017142857,0.811594203,0,0.927536232,0.017142857,1,0.097142857,0.125603865,0.28,0.202898551,0.262857143,0.275362319,0.268571429,0.338164251,0.297142857,0.270531401,0.308571429,0.198067633,0.302857143,0.676328502,0.285714286,0.748792271,0.245714286,0.816425121,0.24,0.888888889,0.245714286,0.826086957,0.28,0.753623188,0.291428571,tidak suka
0.288461538,0.91160221,0.365384615,0.839779006,0.442307692,0.812154696,0.514423077,0.828729282,0.586538462,0.801104972,0.663461538,0.828729282,0.721153846,0.906077348,0.668269231,0.955801105,0.596153846,0.988950276,0.519230769,1,0.447115385,0.994475138,0.365384615,0.972375691,0.322115385,0.906077348,0.442307692,0.883977901,0.514423077,0.889502762,0.591346154,0.878453039,0.6875,0.895027624,0.591346154,0.883977901,0.519230769,0.895027624,0.447115385,0.889502762,0,0.121546961,0.076923077,0.038674033,0.192307692,0.022099448,0.307692308,0.033149171,0.413461538,0.071823204,0.572115385,0.049723757,0.6875,0.016574586,0.802884615,0,0.918269231,0.022099448,1,0.099447514,0.115384615,0.26519337,0.192307692,0.248618785,0.269230769,0.254143646,0.336538462,0.29281768,0.264423077,0.303867403,0.1875,0.298342541,0.673076923,0.287292818,0.745192308,0.237569061,0.822115385,0.232044199,0.894230769,0.248618785,0.831730769,0.287292818,0.75,0.298342541,tidak suka
0.296650718,0.916201117,0.368421053,0.849162011,0.440191388,0.82122905,0.511961722,0.837988827,0.588516746,0.815642458,0.66507177,0.843575419,0.727272727,0.905027933,0.66507177,0.960893855,0.593301435,0.988826816,0.516746411,1,0.444976077,0.994413408,0.368421053,0.972067039,0.330143541,0.905027933,0.444976077,0.882681564,0.511961722,0.888268156,0.588516746,0.877094972,0.688995215,0.899441341,0.588516746,0.888268156,0.511961722,0.899441341,0.444976077,0.893854749,0,0.156424581,0.071770335,0.067039106,0.186602871,0.044692737,0.306220096,0.05027933,0.411483254,0.094972067,0.555023923,0.061452514,0.679425837,0.022346369,0.803827751,0,0.928229665,0.027932961,1,0.122905028,0.119617225,0.284916201,0.19138756,0.268156425,0.263157895,0.273743017,0.330143541,0.301675978,0.263157895,0.312849162,0.19138756,0.30726257,0.669856459,0.284916201,0.736842105,0.245810056,0.813397129,0.240223464,0.885167464,0.245810056,0.822966507,0.279329609,0.746411483,0.290502793,tidak suka
0.308056872,0.908108108,0.383886256,0.837837838,0.464454976,0.816216216,0.54028436,0.832432432,0.616113744,0.805405405,0.687203791,0.827027027,0.744075829,0.897297297,0.696682464,0.951351351,0.625592417,0.989189189,0.549763033,1,0.473933649,0.994594595,0.388625592,0.967567568,0.345971564,0.902702703,0.469194313,0.886486486,0.54028436,0.891891892,0.616113744,0.875675676,0.710900474,0.891891892,0.620853081,0.886486486,0.545023697,0.897297297,0.469194313,0.891891892,0,0.145945946,0.08056872,0.054054054,0.194312796,0.027027027,0.312796209,0.043243243,0.421800948,0.086486486,0.587677725,0.054054054,0.701421801,0.021621622,0.815165877,0,0.928909953,0.032432432,1,0.118918919,0.127962085,0.275675676,0.199052133,0.254054054,0.274881517,0.259459459,0.345971564,0.302702703,0.274881517,0.308108108,0.199052133,0.302702703,0.682464455,0.291891892,0.744075829,0.237837838,0.819905213,0.232432432,0.895734597,0.254054054,0.829383886,0.286486486,0.753554502,0.297297297,suka
0.261904762,0.880434783,0.371428571,0.875,0.466666667,0.858695652,0.542857143,0.869565217,0.619047619,0.842391304,0.704761905,0.842391304,0.804761905,0.847826087,0.719047619,0.929347826,0.642857143,0.97826087,0.561904762,0.994565217,0.485714286,1,0.380952381,0.967391304,0.3,0.891304348,0.471428571,0.913043478,0.547619048,0.918478261,0.623809524,0.89673913,0.761904762,0.858695652,0.628571429,0.891304348,0.552380952,0.913043478,0.480952381,0.907608696,0,0.190217391,0.066666667,0.081521739,0.176190476,0.038043478,0.29047619,0.043478261,0.395238095,0.092391304,0.59047619,0.065217391,0.704761905,0.02173913,0.819047619,0,0.933333333,0.038043478,1,0.135869565,0.133333333,0.309782609,0.2,0.27173913,0.280952381,0.282608696,0.352380952,0.336956522,0.280952381,0.342391304,0.2,0.342391304,0.671428571,0.315217391,0.738095238,0.244565217,0.814285714,0.233695652,0.885714286,0.260869565,0.828571429,0.298913043,0.752380952,0.315217391,suka
0.30875576,0.860824742,0.382488479,0.835051546,0.451612903,0.81443299,0.502304147,0.829896907,0.557603687,0.809278351,0.6359447,0.829896907,0.728110599,0.855670103,0.64516129,0.948453608,0.571428571,0.994845361,0.511520737,1,0.456221198,0.994845361,0.382488479,0.948453608,0.34562212,0.865979381,0.456221198,0.87628866,0.502304147,0.87628866,0.557603687,0.871134021,0.686635945,0.860824742,0.562211982,0.891752577,0.506912442,0.896907216,0.456221198,0.891752577,0,0.097938144,0.078341014,0.030927835,0.184331797,0.025773196,0.285714286,0.067010309,0.387096774,0.12371134,0.557603687,0.128865979,0.66359447,0.051546392,0.774193548,0,0.903225806,0,1,0.072164948,0.105990783,0.237113402,0.175115207,0.201030928,0.262672811,0.206185567,0.33640553,0.278350515,0.253456221,0.293814433,0.165898618,0.288659794,0.64516129,0.268041237,0.723502304,0.195876289,0.806451613,0.18556701,0.880184332,0.216494845,0.820276498,0.268041237,0.732718894,0.278350515,tidak suka
0.297674419,0.857894737,0.36744186,0.831578947,0.43255814,0.810526316,0.48372093,0.826315789,0.539534884,0.810526316,0.618604651,0.831578947,0.711627907,0.857894737,0.627906977,0.952631579,0.553488372,0.994736842,0.497674419,1,0.441860465,0.994736842,0.36744186,0.947368421,0.334883721,0.868421053,0.437209302,0.878947368,0.488372093,0.878947368,0.544186047,0.873684211,0.674418605,0.863157895,0.544186047,0.878947368,0.493023256,0.889473684,0.441860465,0.878947368,0,0.078947368,0.079069767,0.010526316,0.190697674,0.010526316,0.293023256,0.052631579,0.395348837,0.110526316,0.558139535,0.115789474,0.665116279,0.047368421,0.781395349,0,0.906976744,0,1,0.068421053,0.111627907,0.226315789,0.181395349,0.194736842,0.260465116,0.2,0.330232558,0.263157895,0.255813953,0.278947368,0.172093023,0.273684211,0.651162791,0.257894737,0.725581395,0.194736842,0.804651163,0.184210526,0.874418605,0.215789474,0.813953488,0.263157895,0.730232558,0.273684211,tidak suka
0.277777778,0.853658537,0.37037037,0.8,0.458333333,0.770731707,0.513888889,0.785365854,0.574074074,0.770731707,0.657407407,0.8,0.726851852,0.853658537,0.662037037,0.946341463,0.583333333,0.990243902,0.518518519,1,0.453703704,0.990243902,0.365740741,0.946341463,0.319444444,0.858536585,0.453703704,0.843902439,0.513888889,0.843902439,0.574074074,0.83902439,0.689814815,0.853658537,0.578703704,0.892682927,0.518518519,0.897560976,0.458333333,0.892682927,0,0.092682927,0.087962963,0.014634146,0.208333333,0,0.328703704,0.029268293,0.439814815,0.087804878,0.587962963,0.092682927,0.699074074,0.048780488,0.810185185,0.024390244,0.925925926,0.043902439,1,0.12195122,0.111111111,0.224390244,0.189814815,0.195121951,0.268518519,0.195121951,0.342592593,0.248780488,0.263888889,0.258536585,0.180555556,0.253658537,0.666666667,0.253658537,0.75,0.209756098,0.824074074,0.209756098,0.888888889,0.243902439,0.828703704,0.268292683,0.75,0.268292683,tidak suka
0.236111111,0.835748792,0.319444444,0.782608696,0.407407407,0.758454106,0.467592593,0.777777778,0.527777778,0.768115942,0.606481481,0.801932367,0.680555556,0.869565217,0.606481481,0.956521739,0.523148148,1,0.458333333,1,0.393518519,0.990338164,0.310185185,0.942028986,0.273148148,0.84057971,0.402777778,0.826086957,0.462962963,0.835748792,0.523148148,0.835748792,0.643518519,0.8647343,0.527777778,0.90821256,0.467592593,0.90821256,0.402777778,0.898550725,0,0.072463768,0.087962963,0.004830918,0.208333333,0,0.319444444,0.038647343,0.425925926,0.101449275,0.583333333,0.130434783,0.694444444,0.077294686,0.805555556,0.057971014,0.921296296,0.077294686,1,0.164251208,0.106481481,0.217391304,0.180555556,0.188405797,0.259259259,0.193236715,0.328703704,0.251207729,0.25,0.260869565,0.166666667,0.251207729,0.657407407,0.275362319,0.740740741,0.236714976,0.814814815,0.236714976,0.87962963,0.280193237,0.814814815,0.304347826,0.736111111,0.29468599,tidak suka
0.204651163,0.787128713,0.293023256,0.747524752,0.4,0.737623762,0.474418605,0.752475248,0.558139535,0.737623762,0.674418605,0.752475248,0.795348837,0.792079208,0.688372093,0.925742574,0.576744186,0.99009901,0.488372093,1,0.404651163,0.99009901,0.297674419,0.920792079,0.241860465,0.801980198,0.4,0.806930693,0.479069767,0.816831683,0.562790698,0.806930693,0.753488372,0.806930693,0.56744186,0.896039604,0.48372093,0.905940594,0.404651163,0.891089109,0,0.118811881,0.069767442,0.03960396,0.176744186,0.01980198,0.28372093,0.044554455,0.376744186,0.099009901,0.572093023,0.089108911,0.679069767,0.02970297,0.795348837,0,0.91627907,0.024752475,1,0.108910891,0.106976744,0.252475248,0.176744186,0.222772277,0.251162791,0.222772277,0.325581395,0.272277228,0.246511628,0.282178218,0.16744186,0.277227723,0.646511628,0.267326733,0.730232558,0.217821782,0.804651163,0.207920792,0.874418605,0.242574257,0.813953488,0.267326733,0.734883721,0.272277228,suka
0.201923077,0.787878788,0.283653846,0.742424242,0.384615385,0.727272727,0.461538462,0.742424242,0.543269231,0.727272727,0.663461538,0.747474747,0.783653846,0.787878788,0.677884615,0.919191919,0.5625,0.984848485,0.475961538,1,0.394230769,0.984848485,0.288461538,0.914141414,0.235576923,0.797979798,0.389423077,0.797979798,0.461538462,0.803030303,0.548076923,0.797979798,0.745192308,0.803030303,0.557692308,0.893939394,0.471153846,0.898989899,0.394230769,0.888888889,0,0.136363636,0.067307692,0.045454545,0.182692308,0.02020202,0.288461538,0.045454545,0.379807692,0.106060606,0.543269231,0.095959596,0.658653846,0.035353535,0.783653846,0,0.913461538,0.025252525,1,0.116161616,0.105769231,0.252525253,0.173076923,0.222222222,0.245192308,0.227272727,0.322115385,0.272727273,0.240384615,0.277777778,0.168269231,0.272727273,0.644230769,0.262626263,0.725961538,0.217171717,0.798076923,0.207070707,0.870192308,0.237373737,0.802884615,0.257575758,0.730769231,0.262626263,suka
0.215962441,0.786069652,0.305164319,0.741293532,0.408450704,0.726368159,0.478873239,0.736318408,0.55399061,0.721393035,0.671361502,0.741293532,0.784037559,0.786069652,0.690140845,0.92039801,0.577464789,0.990049751,0.497652582,1,0.417840376,0.990049751,0.314553991,0.92039801,0.253521127,0.7960199,0.408450704,0.7960199,0.483568075,0.800995025,0.558685446,0.7960199,0.746478873,0.800995025,0.568075117,0.890547264,0.492957746,0.900497512,0.41314554,0.890547264,0,0.134328358,0.070422535,0.044776119,0.178403756,0.019900498,0.276995305,0.044776119,0.375586854,0.094527363,0.568075117,0.094527363,0.671361502,0.029850746,0.788732394,0,0.910798122,0.024875622,1,0.109452736,0.112676056,0.253731343,0.183098592,0.218905473,0.253521127,0.218905473,0.319248826,0.268656716,0.248826291,0.278606965,0.17370892,0.273631841,0.65258216,0.263681592,0.723004695,0.208955224,0.798122066,0.2039801,0.868544601,0.23880597,0.807511737,0.258706468,0.732394366,0.268656716,suka
0.324200913,0.933333333,0.415525114,0.866666667,0.506849315,0.820512821,0.561643836,0.841025641,0.621004566,0.820512821,0.684931507,0.866666667,0.735159817,0.928205128,0.675799087,0.969230769,0.616438356,0.994871795,0.552511416,1,0.493150685,1,0.406392694,0.979487179,0.360730594,0.923076923,0.502283105,0.902564103,0.561643836,0.907692308,0.616438356,0.902564103,0.698630137,0.917948718,0.616438356,0.907692308,0.557077626,0.912820513,0.497716895,0.907692308,0,0.112820513,0.091324201,0.030769231,0.214611872,0,0.337899543,0.020512821,0.461187215,0.061538462,0.639269406,0.061538462,0.744292237,0.030769231,0.849315068,0.025641026,0.945205479,0.061538462,1,0.148717949,0.132420091,0.225641026,0.210045662,0.2,0.287671233,0.205128205,0.351598174,0.256410256,0.283105023,0.261538462,0.205479452,0.256410256,0.698630137,0.261538462,0.762557078,0.215384615,0.831050228,0.215384615,0.890410959,0.246153846,0.835616438,0.271794872,0.762557078,0.271794872,tidak suka
0.297169811,0.937823834,0.391509434,0.870466321,0.490566038,0.823834197,0.547169811,0.844559585,0.603773585,0.823834197,0.674528302,0.870466321,0.726415094,0.932642487,0.669811321,0.974093264,0.603773585,0.994818653,0.537735849,1,0.476415094,1,0.386792453,0.979274611,0.33490566,0.932642487,0.485849057,0.906735751,0.54245283,0.911917098,0.599056604,0.906735751,0.693396226,0.922279793,0.603773585,0.906735751,0.54245283,0.911917098,0.485849057,0.911917098,0,0.113989637,0.089622642,0.031088083,0.212264151,0,0.33490566,0.020725389,0.452830189,0.067357513,0.660377358,0.07253886,0.759433962,0.041450777,0.863207547,0.03626943,0.952830189,0.077720207,1,0.160621762,0.127358491,0.238341969,0.20754717,0.21761658,0.287735849,0.222797927,0.349056604,0.274611399,0.283018868,0.279792746,0.198113208,0.269430052,0.693396226,0.284974093,0.764150943,0.238341969,0.83490566,0.243523316,0.891509434,0.274611399,0.83490566,0.300518135,0.764150943,0.295336788,tidak suka
0.315555556,0.875621891,0.373333333,0.820895522,0.444444444,0.7960199,0.511111111,0.810945274,0.582222222,0.791044776,0.666666667,0.805970149,0.737777778,0.855721393,0.68,0.955223881,0.6,0.995024876,0.528888889,1,0.453333333,0.995024876,0.382222222,0.960199005,0.346666667,0.870646766,0.448888889,0.855721393,0.515555556,0.860696517,0.582222222,0.850746269,0.711111111,0.855721393,0.591111111,0.895522388,0.524444444,0.905472637,0.453333333,0.895522388,0,0.129353234,0.062222222,0.044776119,0.173333333,0.024875622,0.284444444,0.029850746,0.391111111,0.059701493,0.568888889,0.039800995,0.684444444,0.004975124,0.795555556,0,0.911111111,0.024875622,1,0.089552239,0.128888889,0.243781095,0.195555556,0.218905473,0.266666667,0.213930348,0.328888889,0.243781095,0.266666667,0.253731343,0.191111111,0.253731343,0.662222222,0.228855721,0.728888889,0.194029851,0.8,0.194029851,0.871111111,0.208955224,0.8,0.223880597,0.733333333,0.228855721,tidak suka
0.293333333,0.835820896,0.351111111,0.7960199,0.431111111,0.781094527,0.488888889,0.800995025,0.555555556,0.791044776,0.644444444,0.815920398,0.715555556,0.860696517,0.648888889,0.960199005,0.56,1,0.488888889,1,0.422222222,0.985074627,0.351111111,0.935323383,0.324444444,0.835820896,0.431111111,0.835820896,0.488888889,0.845771144,0.555555556,0.84079602,0.688888889,0.860696517,0.555555556,0.915422886,0.488888889,0.915422886,0.426666667,0.900497512,0,0.094527363,0.075555556,0.014925373,0.191111111,0.009950249,0.302222222,0.029850746,0.413333333,0.069651741,0.568888889,0.059701493,0.684444444,0.024875622,0.8,0,0.92,0.014925373,1,0.084577114,0.124444444,0.213930348,0.195555556,0.189054726,0.266666667,0.184079602,0.333333333,0.228855721,0.266666667,0.233830846,0.191111111,0.233830846,0.666666667,0.228855721,0.728888889,0.179104478,0.804444444,0.179104478,0.871111111,0.208955224,0.808888889,0.233830846,0.733333333,0.233830846,tidak suka
0.28959276,0.868020305,0.352941176,0.822335025,0.425339367,0.807106599,0.488687783,0.822335025,0.552036199,0.807106599,0.63800905,0.827411168,0.7239819,0.868020305,0.647058824,0.964467005,0.56561086,1,0.497737557,1,0.429864253,0.994923858,0.357466063,0.954314721,0.321266968,0.868020305,0.425339367,0.862944162,0.488687783,0.868020305,0.556561086,0.862944162,0.692307692,0.873096447,0.561085973,0.898477157,0.49321267,0.898477157,0.429864253,0.893401015,0,0.131979695,0.067873303,0.045685279,0.176470588,0.020304569,0.28959276,0.020304569,0.402714932,0.050761421,0.56561086,0.035532995,0.678733032,0.005076142,0.79638009,0,0.914027149,0.025380711,1,0.101522843,0.126696833,0.248730964,0.194570136,0.21319797,0.271493213,0.208121827,0.334841629,0.258883249,0.266968326,0.263959391,0.190045249,0.263959391,0.660633484,0.248730964,0.728506787,0.192893401,0.805429864,0.192893401,0.873303167,0.228426396,0.809954751,0.253807107,0.733031674,0.253807107,tidak suka
0.290909091,0.866666667,0.381818182,0.861538462,0.463636364,0.846153846,0.518181818,0.861538462,0.572727273,0.841025641,0.654545455,0.851282051,0.75,0.846153846,0.659090909,0.943589744,0.581818182,0.98974359,0.522727273,1,0.463636364,0.994871795,0.386363636,0.958974359,0.322727273,0.871794872,0.463636364,0.902564103,0.518181818,0.902564103,0.577272727,0.892307692,0.718181818,0.856410256,0.577272727,0.897435897,0.518181818,0.907692308,0.463636364,0.902564103,0,0.133333333,0.063636364,0.041025641,0.168181818,0.020512821,0.277272727,0.035897436,0.377272727,0.082051282,0.613636364,0.071794872,0.709090909,0.015384615,0.818181818,0,0.927272727,0.025641026,1,0.102564103,0.127272727,0.266666667,0.2,0.241025641,0.272727273,0.241025641,0.340909091,0.282051282,0.272727273,0.287179487,0.195454545,0.292307692,0.663636364,0.271794872,0.731818182,0.225641026,0.804545455,0.225641026,0.872727273,0.251282051,0.809090909,0.271794872,0.736363636,0.276923077,suka
0.24122807,0.789215686,0.333333333,0.794117647,0.425438596,0.789215686,0.486842105,0.803921569,0.552631579,0.789215686,0.649122807,0.789215686,0.754385965,0.789215686,0.662280702,0.926470588,0.565789474,0.990196078,0.5,1,0.429824561,0.990196078,0.337719298,0.921568627,0.276315789,0.803921569,0.425438596,0.833333333,0.49122807,0.838235294,0.557017544,0.828431373,0.723684211,0.803921569,0.561403509,0.911764706,0.495614035,0.921568627,0.425438596,0.911764706,0,0.12745098,0.061403509,0.029411765,0.162280702,0,0.271929825,0.009803922,0.368421053,0.058823529,0.614035088,0.06372549,0.710526316,0.014705882,0.824561404,0.009803922,0.929824561,0.049019608,1,0.137254902,0.122807018,0.25,0.192982456,0.225490196,0.263157895,0.225490196,0.328947368,0.269607843,0.25877193,0.264705882,0.188596491,0.264705882,0.657894737,0.274509804,0.73245614,0.235294118,0.798245614,0.240196078,0.864035088,0.264705882,0.798245614,0.269607843,0.728070175,0.269607843,suka
0.268181818,0.815,0.354545455,0.805,0.445454545,0.8,0.509090909,0.81,0.577272727,0.795,0.668181818,0.795,0.772727273,0.795,0.681818182,0.92,0.595454545,0.985,0.522727273,1,0.45,0.99,0.363636364,0.935,0.3,0.825,0.445454545,0.84,0.513636364,0.845,0.581818182,0.83,0.745454545,0.805,0.590909091,0.915,0.518181818,0.925,0.45,0.92,0,0.145,0.059090909,0.045,0.168181818,0.01,0.277272727,0.02,0.368181818,0.075,0.622727273,0.07,0.718181818,0.015,0.827272727,0,0.936363636,0.035,1,0.125,0.131818182,0.265,0.2,0.23,0.268181818,0.23,0.340909091,0.28,0.268181818,0.28,0.195454545,0.275,0.668181818,0.275,0.740909091,0.225,0.809090909,0.22,0.872727273,0.25,0.809090909,0.265,0.740909091,0.27,suka
